verif/log/gmac_test_1.log
Reading D:/Actel/Libero_v9.1/Model/tcl/vsim/pref.tcl 

# 6.6d

# vsim +gmac_test_1 -do run.do -c tb_top 
# //  ModelSim ACTEL 6.6d Nov  2 2010 
# //
# //  Copyright 1991-2010 Mentor Graphics Corporation
# //              All Rights Reserved.
# //
# //  THIS WORK CONTAINS TRADE SECRET AND 
# //  PROPRIETARY INFORMATION WHICH IS THE PROPERTY
# //  OF MENTOR GRAPHICS CORPORATION OR ITS LICENSORS
# //  AND IS SUBJECT TO LICENSE TERMS.
# //
# Loading sv_std.std
# Loading work.tb_top
# Loading work.turbo8051
# Loading work.clkgen
# Loading work.clk_ctl
# Loading work.wb_crossbar
# Loading work.g_mac_top
# Loading work.g_dpath_ctrl
# Loading work.g_eth_parser
# Loading work.g_mac_core
# Loading work.g_rx_top
# Loading work.g_rx_fsm
# Loading work.half_dup_dble_reg
# Loading work.g_rx_crc32
# Loading work.g_deferral_rx
# Loading work.g_md_intf
# Loading work.g_tx_top
# Loading work.g_deferral
# Loading work.g_tx_fsm
# Loading work.g_tx_crc32
# Loading work.toggle_sync
# Loading work.g_cfg_mgmt
# Loading work.s2f_sync
# Loading work.generic_register
# Loading work.req_register
# Loading work.stat_counter
# Loading work.generic_intr_stat_reg
# Loading work.g_mii_intf
# Loading work.async_fifo
# Loading work.wb_rd_mem2mem
# Loading work.wb_wr_mem2mem
# Loading work.uart_core
# Loading work.uart_cfg
# Loading work.stat_register
# Loading work.uart_txfsm
# Loading work.uart_rxfsm
# Loading work.double_sync_low
# Loading work.spi_core
# Loading work.spi_if
# Loading work.spi_ctl
# Loading work.spi_cfg
# Loading work.oc8051_top
# Loading work.oc8051_decoder
# Loading work.oc8051_alu
# Loading work.oc8051_multiply
# Loading work.oc8051_divide
# Loading work.oc8051_ram_top
# Loading work.oc8051_ram_256x8_two_bist
# Loading work.oc8051_alu_src_sel
# Loading work.oc8051_comp
# Loading work.oc8051_cy_select
# Loading work.oc8051_indi_addr
# Loading work.oc8051_memory_interface
# Loading work.oc8051_sfr
# Loading work.oc8051_acc
# Loading work.oc8051_b_register
# Loading work.oc8051_sp
# Loading work.oc8051_dptr
# Loading work.oc8051_psw
# Loading work.oc8051_ports
# Loading work.oc8051_int
# Loading work.oc8051_tc
# Loading work.oc8051_tc2
# Loading work.oc8051_xrom
# Loading work.oc8051_xram
# Loading work.tb_eth_top
# Loading work.tb_mii
# Loading work.tb_rmii
# Loading work.uart_agent
# Loading work.m25p20
# Loading work.memory_access
# Loading work.acdc_check
# Loading work.internal_logic
# Loading work.AT45DB321
# Loading work.tb_glbl
# Loading work.bit_register
# ** Warning: (vsim-3017) ../../rtl/uart/uart_core.v(211): [TFMPC] - Too few port connections. Expected 14, found 12.
#         Region: /tb_top/u_core/u_uart_core/u_rxfifo
# ** Warning: (vsim-3722) ../../rtl/uart/uart_core.v(211): [TFMPC] - Missing connection for port 'afull'.
# ** Warning: (vsim-3722) ../../rtl/uart/uart_core.v(211): [TFMPC] - Missing connection for port 'aempty'.
# ** Warning: (vsim-3017) ../../rtl/uart/uart_core.v(227): [TFMPC] - Too few port connections. Expected 14, found 12.
#         Region: /tb_top/u_core/u_uart_core/u_txfifo
# ** Warning: (vsim-3722) ../../rtl/uart/uart_core.v(227): [TFMPC] - Missing connection for port 'afull'.
# ** Warning: (vsim-3722) ../../rtl/uart/uart_core.v(227): [TFMPC] - Missing connection for port 'aempty'.
# do run.do 
# i : 00
# i : 00
# i : 00
# i : 00
# i : 00
# i : 00
# i : 00
# i : 00
# i : 00
# i : 00
# NOTE : Load memory with Initial delivery content
# NOTE : Initial Load End
# NOTE: COMMUNICATION (RE)STARTED
# Config-Write: Id: 1 Addr = 0000, Cfg. Data = 00114501
# Config-Write: Id: 1 Addr = 0008, Cfg. Data = 00001616
# Clock period configured = 40 ns, data width = 4
# Config-Write: Id: 1 Addr = 0024, Cfg. Data = 70407000
# 1260 ns: Starting packet transmission to MAC, size = 64
# SA = 12:34:56:78:9a:bc, DA = 16:22:33:44:55:66, type/length = 0700
# Contents:
# 16 22 33 44 55 66 12 34 56 78 9a bc 07 00 24 81
# 09 63 0d 8d 65 12 01 0d 76 3d ed 8c f9 c6 c5 aa
# e5 77 12 8f f2 ce e8 c5 5c bd 2d 65 63 0a 80 20
# aa 9d 96 13 0d 53 6b d5 02 ae 1d cf 21 4c 4b 3d
# ****
#              7020000 ns: Completed packet transmission to MAC
# 8060 ns: Starting packet transmission to MAC, size = 65
# SA = 12:34:56:78:9a:bc, DA = 16:22:33:44:55:66, type/length = 0700
# Contents:
# 16 22 33 44 55 66 12 34 56 78 9a bc 07 00 23 0a
# ca 3c f2 8a 41 d8 78 89 eb b6 c6 ae bc 2a 0b 71
# 85 4f 3b 3a 7e 15 f1 d9 62 4c 9f 8f f8 b7 9f 5c
# 5b 89 49 d0 d7 51 96 0c c2 c8 77 3d 12 fb 72 d9
# bb
# ****
# Config-Write: Id: 4 Addr = 7040, Cfg. Data = 28400040
# 9700 ns: Preamble detected, last IFG = 970 bits
# 10301 ns: SFD received, last IFG = 970 bits
#             13900000 ns: Completed packet transmission to MAC
# 14940 ns: Starting packet transmission to MAC, size = 66
# SA = 12:34:56:78:9a:bc, DA = 16:22:33:44:55:66, type/length = 0700
# Contents:
# 16 22 33 44 55 66 12 34 56 78 9a bc 07 00 7e 6d
# 39 1f d3 85 78 5b 49 3f 2a 58 86 8e 9c fa 26 73
# a3 2f b3 5f 44 f7 cb e6 5a 29 ed da 65 b5 df 79
# 44 d0 2a ab 0e dc 9a fd c3 56 4e 67 0a b6 6f 99
# f0 ca
# ****
# Config-Write: Id: 4 Addr = 7044, Cfg. Data = 28410041
# 15420 ns: Received packet, size = 64
# SA = 12:34:56:78:9a:bc, DA = 16:22:33:44:55:66, type/length = 0700
# Length error, type/length field = 1792, expected value = 46
# Contents:
# 16 22 33 44 55 66 12 34 56 78 9a bc 07 00 24 81
# 09 63 0d 8d 65 12 01 0d 76 3d ed 8c f9 c6 c5 aa
# e5 77 12 8f f2 ce e8 c5 5c bd 2d 65 63 0a 80 20
# aa 9d 96 13 0d 53 6b d5 02 ae 1d cf 21 4c 4b 3d
# ****
# 16420 ns: Preamble detected, last IFG = 96 bits
# 17021 ns: SFD received, last IFG = 96 bits
#             20860000 ns: Completed packet transmission to MAC
# 21900 ns: Starting packet transmission to MAC, size = 67
# SA = 12:34:56:78:9a:bc, DA = 16:22:33:44:55:66, type/length = 0700
# Contents:
# 16 22 33 44 55 66 12 34 56 78 9a bc 07 00 38 79
# b8 94 93 04 59 db 4d d9 6d 76 ca b6 95 46 04 f7
# 69 b4 88 28 2d c7 2e 08 1c fd 29 1c 86 da 3d 66
# 70 73 ba 5e fa d5 1a b9 37 96 c0 26 b6 7d dc e1
# d6 98 d3
# ****
# Config-Write: Id: 4 Addr = 7048, Cfg. Data = 28421042
# 22220 ns: Received packet, size = 65
# SA = 12:34:56:78:9a:bc, DA = 16:22:33:44:55:66, type/length = 0700
# Length error, type/length field = 1792, expected value = 47
# Contents:
# 16 22 33 44 55 66 12 34 56 78 9a bc 07 00 23 0a
# ca 3c f2 8a 41 d8 78 89 eb b6 c6 ae bc 2a 0b 71
# 85 4f 3b 3a 7e 15 f1 d9 62 4c 9f 8f f8 b7 9f 5c
# 5b 89 49 d0 d7 51 96 0c c2 c8 77 3d 12 fb 72 d9
# bb
# ****
# 23220 ns: Preamble detected, last IFG = 96 bits
# 23821 ns: SFD received, last IFG = 96 bits
#             27900000 ns: Completed packet transmission to MAC
# 28940 ns: Starting packet transmission to MAC, size = 68
# SA = 12:34:56:78:9a:bc, DA = 16:22:33:44:55:66, type/length = 0700
# Contents:
# 16 22 33 44 55 66 12 34 56 78 9a bc 07 00 86 78
# 7e db cf 79 fa 61 17 a1 86 50 f5 35 29 c1 c5 98
# 4b 73 ec 8a 4e a8 a9 a1 0e e6 9f 2a 2a 8d 9e 38
# 79 c8 ca 13 6b c7 b6 ba c4 b9 92 b4 7f 86 fa f2
# d8 8a 95 46
# ****
# 29100 ns: Received packet, size = 66
# SA = 12:34:56:78:9a:bc, DA = 16:22:33:44:55:66, type/length = 0700
# Length error, type/length field = 1792, expected value = 48
# Contents:
# 16 22 33 44 55 66 12 34 56 78 9a bc 07 00 7e 6d
# 39 1f d3 85 78 5b 49 3f 2a 58 86 8e 9c fa 26 73
# a3 2f b3 5f 44 f7 cb e6 5a 29 ed da 65 b5 df 79
# 44 d0 2a ab 0e dc 9a fd c3 56 4e 67 0a b6 6f 99
# f0 ca
# ****
# Config-Write: Id: 4 Addr = 704c, Cfg. Data = 28432043
# 30540 ns: Preamble detected, last IFG = 140 bits
# 31141 ns: SFD received, last IFG = 140 bits
#             35020000 ns: Completed packet transmission to MAC
# 36060 ns: Starting packet transmission to MAC, size = 69
# SA = 12:34:56:78:9a:bc, DA = 16:22:33:44:55:66, type/length = 0700
# Contents:
# 16 22 33 44 55 66 12 34 56 78 9a bc 07 00 32 bd
# 84 e4 ca a9 a1 8e fb 0b ef c9 36 75 8f 6b 88 ae
# 9b 92 28 2d 4b c2 1e 0d ec 18 d1 86 41 3b d8 53
# 56 5b e2 04 73 d8 12 b8 39 e5 a1 2b 81 c8 27 a1
# 1f dd 21 ca 31
# ****
# Config-Write: Id: 4 Addr = 7050, Cfg. Data = 28443044
# 36500 ns: Received packet, size = 67
# SA = 12:34:56:78:9a:bc, DA = 16:22:33:44:55:66, type/length = 0700
# Length error, type/length field = 1792, expected value = 49
# Contents:
# 16 22 33 44 55 66 12 34 56 78 9a bc 07 00 38 79
# b8 94 93 04 59 db 4d d9 6d 76 ca b6 95 46 04 f7
# 69 b4 88 28 2d c7 2e 08 1c fd 29 1c 86 da 3d 66
# 70 73 ba 5e fa d5 1a b9 37 96 c0 26 b6 7d dc e1
# d6 98 d3
# ****
# 37500 ns: Preamble detected, last IFG = 96 bits
# 38101 ns: SFD received, last IFG = 96 bits
#             42220000 ns: Completed packet transmission to MAC
# 43260 ns: Starting packet transmission to MAC, size = 70
# SA = 12:34:56:78:9a:bc, DA = 16:22:33:44:55:66, type/length = 0700
# Contents:
# 16 22 33 44 55 66 12 34 56 78 9a bc 07 00 04 58
# 96 14 12 96 b1 55 ed 2b f5 ad 27 84 a7 e7 b9 49
# db c9 51 a1 2a fa 45 83 7c 72 fe 68 6f 86 f0 38
# 40 28 f6 c5 c0 74 39 b0 3c 2a 62 15 e1 17 43 c9
# 86 25 ec 93 f7 b6
# ****
# 43540 ns: Received packet, size = 68
# SA = 12:34:56:78:9a:bc, DA = 16:22:33:44:55:66, type/length = 0700
# Length error, type/length field = 1792, expected value = 50
# Contents:
# 16 22 33 44 55 66 12 34 56 78 9a bc 07 00 86 78
# 7e db cf 79 fa 61 17 a1 86 50 f5 35 29 c1 c5 98
# 4b 73 ec 8a 4e a8 a9 a1 0e e6 9f 2a 2a 8d 9e 38
# 79 c8 ca 13 6b c7 b6 ba c4 b9 92 b4 7f 86 fa f2
# d8 8a 95 46
# ****
# Config-Write: Id: 4 Addr = 7054, Cfg. Data = 28454045
# 44820 ns: Preamble detected, last IFG = 124 bits
# 45421 ns: SFD received, last IFG = 124 bits
#             49500000 ns: Completed packet transmission to MAC
# Config-Write: Id: 4 Addr = 7058, Cfg. Data = 28466046
# 50540 ns: Starting packet transmission to MAC, size = 71
# SA = 12:34:56:78:9a:bc, DA = 16:22:33:44:55:66, type/length = 0700
# Contents:
# 16 22 33 44 55 66 12 34 56 78 9a bc 07 00 c1 8d
# 5a 07 2c 0c 71 3b b6 f7 9e 5c 55 20 a0 72 b4 dd
# 0d 4b 79 9e fd 7b 8f 03 e3 1d b1 44 95 e0 ed 52
# f8 8d 52 84 46 8c 90 17 6a 84 aa 7c 60 ba 8b a6
# 25 32 a2 b2 82 de 56
# ****
# 50940 ns: Received packet, size = 69
# SA = 12:34:56:78:9a:bc, DA = 16:22:33:44:55:66, type/length = 0700
# Length error, type/length field = 1792, expected value = 51
# Contents:
# 16 22 33 44 55 66 12 34 56 78 9a bc 07 00 32 bd
# 84 e4 ca a9 a1 8e fb 0b ef c9 36 75 8f 6b 88 ae
# 9b 92 28 2d 4b c2 1e 0d ec 18 d1 86 41 3b d8 53
# 56 5b e2 04 73 d8 12 b8 39 e5 a1 2b 81 c8 27 a1
# 1f dd 21 ca 31
# ****
# 51940 ns: Preamble detected, last IFG = 96 bits
# 52541 ns: SFD received, last IFG = 96 bits
#             56860000 ns: Completed packet transmission to MAC
# 57900 ns: Starting packet transmission to MAC, size = 72
# SA = 12:34:56:78:9a:bc, DA = 16:22:33:44:55:66, type/length = 0700
# Contents:
# 16 22 33 44 55 66 12 34 56 78 9a bc 07 00 49 14
# 3d 4b 5c 47 86 39 b4 d0 2c 8c 07 6a 11 e8 4b 73
# ec 23 a4 c9 39 df d4 67 9d b0 82 49 d9 20 1c 93
# e3 2a c8 5d 3a 84 2b 39 12 52 59 d0 6e 97 db a6
# bb 00 0f 69 16 8d 9c 08
# ****
# 58140 ns: Received packet, size = 70
# SA = 12:34:56:78:9a:bc, DA = 16:22:33:44:55:66, type/length = 0700
# Length error, type/length field = 1792, expected value = 52
# Contents:
# 16 22 33 44 55 66 12 34 56 78 9a bc 07 00 04 58
# 96 14 12 96 b1 55 ed 2b f5 ad 27 84 a7 e7 b9 49
# db c9 51 a1 2a fa 45 83 7c 72 fe 68 6f 86 f0 38
# 40 28 f6 c5 c0 74 39 b0 3c 2a 62 15 e1 17 43 c9
# 86 25 ec 93 f7 b6
# ****
# Config-Write: Id: 4 Addr = 705c, Cfg. Data = 28478047
# 59140 ns: Preamble detected, last IFG = 96 bits
# 59741 ns: SFD received, last IFG = 96 bits
#             64300000 ns: Completed packet transmission to MAC
# 65340 ns: Starting packet transmission to MAC, size = 73
# SA = 12:34:56:78:9a:bc, DA = 16:22:33:44:55:66, type/length = 0700
# Contents:
# 16 22 33 44 55 66 12 34 56 78 9a bc 07 00 0c 59
# c5 cf 90 51 69 77 4a d8 9b c4 b8 b7 86 30 77 b5
# d4 07 76 e9 8b 01 db 80 c2 c5 30 af 66 af e9 f8
# 06 ef e1 95 ee 60 e5 28 64 29 e1 77 6e 81 d5 68
# f0 aa 0f f1 7d 1f 08 38 e7
# ****
# 65420 ns: Received packet, size = 71
# SA = 12:34:56:78:9a:bc, DA = 16:22:33:44:55:66, type/length = 0700
# Length error, type/length field = 1792, expected value = 53
# Contents:
# 16 22 33 44 55 66 12 34 56 78 9a bc 07 00 c1 8d
# 5a 07 2c 0c 71 3b b6 f7 9e 5c 55 20 a0 72 b4 dd
# 0d 4b 79 9e fd 7b 8f 03 e3 1d b1 44 95 e0 ed 52
# f8 8d 52 84 46 8c 90 17 6a 84 aa 7c 60 ba 8b a6
# 25 32 a2 b2 82 de 56
# ****
# Config-Write: Id: 4 Addr = 7060, Cfg. Data = 2848a048
# 66740 ns: Preamble detected, last IFG = 128 bits
# 67341 ns: SFD received, last IFG = 128 bits
#             71820000 ns: Completed packet transmission to MAC
# 73100 ns: Received packet, size = 72
# SA = 12:34:56:78:9a:bc, DA = 16:22:33:44:55:66, type/length = 0700
# Length error, type/length field = 1792, expected value = 54
# Contents:
# 16 22 33 44 55 66 12 34 56 78 9a bc 07 00 49 14
# 3d 4b 5c 47 86 39 b4 d0 2c 8c 07 6a 11 e8 4b 73
# ec 23 a4 c9 39 df d4 67 9d b0 82 49 d9 20 1c 93
# e3 2a c8 5d 3a 84 2b 39 12 52 59 d0 6e 97 db a6
# bb 00 0f 69 16 8d 9c 08
# ****
# Config-Write: Id: 4 Addr = 7064, Cfg. Data = 2849c049
# 74380 ns: Preamble detected, last IFG = 124 bits
# 74981 ns: SFD received, last IFG = 124 bits
# 80820 ns: Received packet, size = 73
# SA = 12:34:56:78:9a:bc, DA = 16:22:33:44:55:66, type/length = 0700
# Length error, type/length field = 1792, expected value = 55
# Contents:
# 16 22 33 44 55 66 12 34 56 78 9a bc 07 00 0c 59
# c5 cf 90 51 69 77 4a d8 9b c4 b8 b7 86 30 77 b5
# d4 07 76 e9 8b 01 db 80 c2 c5 30 af 66 af e9 f8
# 06 ef e1 95 ee 60 e5 28 64 29 e1 77 6e 81 d5 68
# f0 aa 0f f1 7d 1f 08 38 e7
# ****
#############################
#    TB MII Statistic            
#  TB TO DUT :                 
#      Frm cnt       :          10  
#      Byte cnt      :         685  
#  DUT TO TB :                  
#      Frm cnt       :          10  
#      Byte cnt      :         685  
#      Pause Frm  cnt:           0  
#      Alig Err   cnt:           0  
#      usized Err cnt:           0  
#      crc Err    cnt:           0  
#      Length Err cnt:          10  
#############################
# 
# -------------------------------------------------
# Test Status
# warnings: 0, errors: 0
# 
# -------------------------------------------------
# Test Status
# warnings: 0, errors: 0
# 
# =========
# Test Status: TEST PASSED
# =========
# 
# ** Note: $finish    : ../../verif/lib/tb_glbl.v(64)
#    Time: 174636 ns  Iteration: 0  Instance: /tb_top
